{
	"name": "java-dev-container",
	"dockerFile": "Dockerfile",
	"workspaceMount": "source=src-volume,target=/src,type=volume",
	"workspaceFolder": "/src",
	"mounts": [
		"source=gradle-cache,target=/opt/gradle/gradle-6.2.2,type=volume",
		"source=java-dev-container-vs-ext,target=/root/.vscode-server/extensions,type=volume",
		"source=java-dev-container-vs-ext-insiders,target=/.vscode-server-insiders/extensions,type=volume",
	],

	// Use 'settings' to set *default* container specific settings.json values on container create. 
	// You can edit these settings after create using File > Preferences > Settings > Remote.
	"settings": { 
		"terminal.integrated.shell.linux": "/bin/zsh",
		"java.home": "/usr/lib/jvm/zulu-13-amd64"
	},

	// Use 'appPort' to create a container with published ports. If the port isn't working, be sure
	// your server accepts connections from all interfaces (0.0.0.0 or '*'), not just localhost.
	// "appPort": [],

	// Uncomment the next line to run commands after the container is created.
	"postCreateCommand": "java -version",

	// Comment out the next line to run as root
	"remoteUser": "vscode",

	// Add the IDs of extensions you want installed when the container is created in the array below.
	"extensions": [
		"mhutchie.git-graph",
		"k--kato.intellij-idea-keybindings",
		"ms-azuretools.vscode-docker",
		"davidanson.vscode-markdownlint",
		"richardwillis.vscode-gradle",
		"vscjava.vscode-java-pack"
    ],
    
    "containerEnv": {
        "MY_CONTAINER_VAR": "some-value-here"
        // "MY_CONTAINER_VAR2": "${localEnv:SOME_LOCAL_VAR}"
    },
    "remoteEnv": {
        "MY_REMOTE_VARIABLE": "some-other-value-here"
        // "PATH": "${containerEnv:PATH}:/some/other/path",
        // "MY_REMOTE_VARIABLE2": "${localEnv:SOME_LOCAL_VAR}"
    }

}